{
  "dependencies": {
    "classnames": {
      "version": "2.1.3",
      "resolved": "https://registry.npmjs.org/classnames/-/classnames-2.1.3.tgz",
      "from": "classnames@2.1.3"
    },
    "externalify": {
      "version": "0.1.0",
      "resolved": "https://registry.npmjs.org/externalify/-/externalify-0.1.0.tgz",
      "from": "externalify@0.1.0",
      "dependencies": {
        "globo": {
          "version": "1.0.2",
          "resolved": "https://registry.npmjs.org/globo/-/globo-1.0.2.tgz",
          "from": "globo@1.0.2",
          "dependencies": {
            "accessory": {
              "version": "1.0.1",
              "resolved": "https://registry.npmjs.org/accessory/-/accessory-1.0.1.tgz",
              "from": "accessory@1.0.1",
              "dependencies": {
                "dot-parts": {
                  "version": "1.0.1",
                  "resolved": "https://registry.npmjs.org/dot-parts/-/dot-parts-1.0.1.tgz",
                  "from": "dot-parts@1.0.1"
                }
              }
            },
            "is-defined": {
              "version": "1.0.0",
              "resolved": "https://registry.npmjs.org/is-defined/-/is-defined-1.0.0.tgz",
              "from": "is-defined@1.0.0"
            },
            "ternary": {
              "version": "1.0.0",
              "resolved": "https://registry.npmjs.org/ternary/-/ternary-1.0.0.tgz",
              "from": "ternary@1.0.0"
            }
          }
        },
        "map-obj": {
          "version": "1.0.1",
          "resolved": "https://registry.npmjs.org/map-obj/-/map-obj-1.0.1.tgz",
          "from": "map-obj@1.0.1"
        },
        "replace-require-functions": {
          "version": "1.0.0",
          "resolved": "https://registry.npmjs.org/replace-require-functions/-/replace-require-functions-1.0.0.tgz",
          "from": "replace-require-functions@1.0.0",
          "dependencies": {
            "detective": {
              "version": "4.1.1",
              "resolved": "https://registry.npmjs.org/detective/-/detective-4.1.1.tgz",
              "from": "detective@4.1.1",
              "dependencies": {
                "acorn": {
                  "version": "1.2.2",
                  "resolved": "https://registry.npmjs.org/acorn/-/acorn-1.2.2.tgz",
                  "from": "acorn@1.2.2"
                },
                "defined": {
                  "version": "1.0.0",
                  "resolved": "https://registry.npmjs.org/defined/-/defined-1.0.0.tgz",
                  "from": "defined@1.0.0"
                },
                "escodegen": {
                  "version": "1.6.1",
                  "resolved": "https://registry.npmjs.org/escodegen/-/escodegen-1.6.1.tgz",
                  "from": "escodegen@1.6.1",
                  "dependencies": {
                    "esprima": {
                      "version": "1.2.5",
                      "resolved": "https://registry.npmjs.org/esprima/-/esprima-1.2.5.tgz",
                      "from": "esprima@1.2.5"
                    },
                    "estraverse": {
                      "version": "1.9.3",
                      "resolved": "https://registry.npmjs.org/estraverse/-/estraverse-1.9.3.tgz",
                      "from": "estraverse@1.9.3"
                    },
                    "esutils": {
                      "version": "1.1.6",
                      "resolved": "https://registry.npmjs.org/esutils/-/esutils-1.1.6.tgz",
                      "from": "esutils@1.1.6"
                    },
                    "optionator": {
                      "version": "0.5.0",
                      "resolved": "https://registry.npmjs.org/optionator/-/optionator-0.5.0.tgz",
                      "from": "optionator@0.5.0",
                      "dependencies": {
                        "deep-is": {
                          "version": "0.1.3",
                          "resolved": "https://registry.npmjs.org/deep-is/-/deep-is-0.1.3.tgz",
                          "from": "deep-is@0.1.3"
                        },
                        "fast-levenshtein": {
                          "version": "1.0.6",
                          "resolved": "https://registry.npmjs.org/fast-levenshtein/-/fast-levenshtein-1.0.6.tgz",
                          "from": "fast-levenshtein@1.0.6"
                        },
                        "levn": {
                          "version": "0.2.5",
                          "resolved": "https://registry.npmjs.org/levn/-/levn-0.2.5.tgz",
                          "from": "levn@0.2.5"
                        },
                        "prelude-ls": {
                          "version": "1.1.2",
                          "resolved": "https://registry.npmjs.org/prelude-ls/-/prelude-ls-1.1.2.tgz",
                          "from": "prelude-ls@1.1.2"
                        },
                        "type-check": {
                          "version": "0.3.1",
                          "resolved": "https://registry.npmjs.org/type-check/-/type-check-0.3.1.tgz",
                          "from": "type-check@0.3.1"
                        },
                        "wordwrap": {
                          "version": "0.0.3",
                          "resolved": "https://registry.npmjs.org/wordwrap/-/wordwrap-0.0.3.tgz",
                          "from": "wordwrap@0.0.3"
                        }
                      }
                    },
                    "source-map": {
                      "version": "0.1.43",
                      "resolved": "https://registry.npmjs.org/source-map/-/source-map-0.1.43.tgz",
                      "from": "source-map@0.1.43",
                      "dependencies": {
                        "amdefine": {
                          "version": "1.0.0",
                          "resolved": "https://registry.npmjs.org/amdefine/-/amdefine-1.0.0.tgz",
                          "from": "amdefine@1.0.0"
                        }
                      }
                    }
                  }
                }
              }
            },
            "has-require": {
              "version": "1.2.1",
              "resolved": "https://registry.npmjs.org/has-require/-/has-require-1.2.1.tgz",
              "from": "has-require@1.2.1",
              "dependencies": {
                "escape-string-regexp": {
                  "version": "1.0.3",
                  "resolved": "https://registry.npmjs.org/escape-string-regexp/-/escape-string-regexp-1.0.3.tgz",
                  "from": "escape-string-regexp@1.0.3"
                }
              }
            },
            "patch-text": {
              "version": "1.0.2",
              "resolved": "https://registry.npmjs.org/patch-text/-/patch-text-1.0.2.tgz",
              "from": "patch-text@1.0.2"
            },
            "xtend": {
              "version": "4.0.0",
              "resolved": "https://registry.npmjs.org/xtend/-/xtend-4.0.0.tgz",
              "from": "xtend@4.0.0"
            }
          }
        },
        "through2": {
          "version": "0.4.2",
          "resolved": "https://registry.npmjs.org/through2/-/through2-0.4.2.tgz",
          "from": "through2@0.4.2",
          "dependencies": {
            "readable-stream": {
              "version": "1.0.33",
              "resolved": "https://registry.npmjs.org/readable-stream/-/readable-stream-1.0.33.tgz",
              "from": "readable-stream@1.0.33",
              "dependencies": {
                "core-util-is": {
                  "version": "1.0.1",
                  "resolved": "https://registry.npmjs.org/core-util-is/-/core-util-is-1.0.1.tgz",
                  "from": "core-util-is@1.0.1"
                },
                "inherits": {
                  "version": "2.0.1",
                  "resolved": "https://registry.npmjs.org/inherits/-/inherits-2.0.1.tgz",
                  "from": "inherits@2.0.1"
                },
                "isarray": {
                  "version": "0.0.1",
                  "resolved": "https://registry.npmjs.org/isarray/-/isarray-0.0.1.tgz",
                  "from": "isarray@0.0.1"
                },
                "string_decoder": {
                  "version": "0.10.31",
                  "resolved": "https://registry.npmjs.org/string_decoder/-/string_decoder-0.10.31.tgz",
                  "from": "string_decoder@0.10.31"
                }
              }
            },
            "xtend": {
              "version": "2.1.2",
              "resolved": "https://registry.npmjs.org/xtend/-/xtend-2.1.2.tgz",
              "from": "xtend@2.1.2",
              "dependencies": {
                "object-keys": {
                  "version": "0.4.0",
                  "resolved": "https://registry.npmjs.org/object-keys/-/object-keys-0.4.0.tgz",
                  "from": "object-keys@0.4.0"
                }
              }
            }
          }
        },
        "transformify": {
          "version": "0.1.2",
          "resolved": "https://registry.npmjs.org/transformify/-/transformify-0.1.2.tgz",
          "from": "transformify@0.1.2",
          "dependencies": {
            "readable-stream": {
              "version": "1.1.13",
              "resolved": "https://registry.npmjs.org/readable-stream/-/readable-stream-1.1.13.tgz",
              "from": "readable-stream@1.1.13",
              "dependencies": {
                "core-util-is": {
                  "version": "1.0.1",
                  "resolved": "https://registry.npmjs.org/core-util-is/-/core-util-is-1.0.1.tgz",
                  "from": "core-util-is@1.0.1"
                },
                "inherits": {
                  "version": "2.0.1",
                  "resolved": "https://registry.npmjs.org/inherits/-/inherits-2.0.1.tgz",
                  "from": "inherits@2.0.1"
                },
                "isarray": {
                  "version": "0.0.1",
                  "resolved": "https://registry.npmjs.org/isarray/-/isarray-0.0.1.tgz",
                  "from": "isarray@0.0.1"
                },
                "string_decoder": {
                  "version": "0.10.31",
                  "resolved": "https://registry.npmjs.org/string_decoder/-/string_decoder-0.10.31.tgz",
                  "from": "string_decoder@0.10.31"
                }
              }
            }
          }
        }
      }
    }
  }
}
